Processador/simulation/qsim/mips.msim.vcd
$comment
	File created using the following command:
		vcd file mips.msim.vcd -direction
$end
$date
	Fri Jun 12 13:44:19 2026
$end
$version
	Questa Altera Starter FPGA Edition Version 2025.2
$end
$timescale
	1ps
$end

$scope module UnidadedeProcessamento_vlg_vec_tst $end
$var reg 1 ! clock $end
$var reg 16 " Interruptores [15:0] $end
$var wire 1 # Inst [31] $end
$var wire 1 $ Inst [30] $end
$var wire 1 % Inst [29] $end
$var wire 1 & Inst [28] $end
$var wire 1 ' Inst [27] $end
$var wire 1 ( Inst [26] $end
$var wire 1 ) Inst [25] $end
$var wire 1 * Inst [24] $end
$var wire 1 + Inst [23] $end
$var wire 1 , Inst [22] $end
$var wire 1 - Inst [21] $end
$var wire 1 . Inst [20] $end
$var wire 1 / Inst [19] $end
$var wire 1 0 Inst [18] $end
$var wire 1 1 Inst [17] $end
$var wire 1 2 Inst [16] $end
$var wire 1 3 Inst [15] $end
$var wire 1 4 Inst [14] $end
$var wire 1 5 Inst [13] $end
$var wire 1 6 Inst [12] $end
$var wire 1 7 Inst [11] $end
$var wire 1 8 Inst [10] $end
$var wire 1 9 Inst [9] $end
$var wire 1 : Inst [8] $end
$var wire 1 ; Inst [7] $end
$var wire 1 < Inst [6] $end
$var wire 1 = Inst [5] $end
$var wire 1 > Inst [4] $end
$var wire 1 ? Inst [3] $end
$var wire 1 @ Inst [2] $end
$var wire 1 A Inst [1] $end
$var wire 1 B Inst [0] $end
$var wire 1 C Out_ULA [31] $end
$var wire 1 D Out_ULA [30] $end
$var wire 1 E Out_ULA [29] $end
$var wire 1 F Out_ULA [28] $end
$var wire 1 G Out_ULA [27] $end
$var wire 1 H Out_ULA [26] $end
$var wire 1 I Out_ULA [25] $end
$var wire 1 J Out_ULA [24] $end
$var wire 1 K Out_ULA [23] $end
$var wire 1 L Out_ULA [22] $end
$var wire 1 M Out_ULA [21] $end
$var wire 1 N Out_ULA [20] $end
$var wire 1 O Out_ULA [19] $end
$var wire 1 P Out_ULA [18] $end
$var wire 1 Q Out_ULA [17] $end
$var wire 1 R Out_ULA [16] $end
$var wire 1 S Out_ULA [15] $end
$var wire 1 T Out_ULA [14] $end
$var wire 1 U Out_ULA [13] $end
$var wire 1 V Out_ULA [12] $end
$var wire 1 W Out_ULA [11] $end
$var wire 1 X Out_ULA [10] $end
$var wire 1 Y Out_ULA [9] $end
$var wire 1 Z Out_ULA [8] $end
$var wire 1 [ Out_ULA [7] $end
$var wire 1 \ Out_ULA [6] $end
$var wire 1 ] Out_ULA [5] $end
$var wire 1 ^ Out_ULA [4] $end
$var wire 1 _ Out_ULA [3] $end
$var wire 1 ` Out_ULA [2] $end
$var wire 1 a Out_ULA [1] $end
$var wire 1 b Out_ULA [0] $end
$var wire 1 c zero $end
$var wire 1 d Display1 [6] $end
$var wire 1 e Display1 [5] $end
$var wire 1 f Display1 [4] $end
$var wire 1 g Display1 [3] $end
$var wire 1 h Display1 [2] $end
$var wire 1 i Display1 [1] $end
$var wire 1 j Display1 [0] $end
$var wire 1 k Display2 [6] $end
$var wire 1 l Display2 [5] $end
$var wire 1 m Display2 [4] $end
$var wire 1 n Display2 [3] $end
$var wire 1 o Display2 [2] $end
$var wire 1 p Display2 [1] $end
$var wire 1 q Display2 [0] $end
$var wire 1 r Display3 [6] $end
$var wire 1 s Display3 [5] $end
$var wire 1 t Display3 [4] $end
$var wire 1 u Display3 [3] $end
$var wire 1 v Display3 [2] $end
$var wire 1 w Display3 [1] $end
$var wire 1 x Display3 [0] $end
$var wire 1 y Display4 [6] $end
$var wire 1 z Display4 [5] $end
$var wire 1 { Display4 [4] $end
$var wire 1 | Display4 [3] $end
$var wire 1 } Display4 [2] $end
$var wire 1 ~ Display4 [1] $end
$var wire 1 !! Display4 [0] $end
$var wire 1 "! Wave_Dado1 [31] $end
$var wire 1 #! Wave_Dado1 [30] $end
$var wire 1 $! Wave_Dado1 [29] $end
$var wire 1 %! Wave_Dado1 [28] $end
$var wire 1 &! Wave_Dado1 [27] $end
$var wire 1 '! Wave_Dado1 [26] $end
$var wire 1 (! Wave_Dado1 [25] $end
$var wire 1 )! Wave_Dado1 [24] $end
$var wire 1 *! Wave_Dado1 [23] $end
$var wire 1 +! Wave_Dado1 [22] $end
$var wire 1 ,! Wave_Dado1 [21] $end
$var wire 1 -! Wave_Dado1 [20] $end
$var wire 1 .! Wave_Dado1 [19] $end
$var wire 1 /! Wave_Dado1 [18] $end
$var wire 1 0! Wave_Dado1 [17] $end
$var wire 1 1! Wave_Dado1 [16] $end
$var wire 1 2! Wave_Dado1 [15] $end
$var wire 1 3! Wave_Dado1 [14] $end
$var wire 1 4! Wave_Dado1 [13] $end
$var wire 1 5! Wave_Dado1 [12] $end
$var wire 1 6! Wave_Dado1 [11] $end
$var wire 1 7! Wave_Dado1 [10] $end
$var wire 1 8! Wave_Dado1 [9] $end
$var wire 1 9! Wave_Dado1 [8] $end
$var wire 1 :! Wave_Dado1 [7] $end
$var wire 1 ;! Wave_Dado1 [6] $end
$var wire 1 <! Wave_Dado1 [5] $end
$var wire 1 =! Wave_Dado1 [4] $end
$var wire 1 >! Wave_Dado1 [3] $end
$var wire 1 ?! Wave_Dado1 [2] $end
$var wire 1 @! Wave_Dado1 [1] $end
$var wire 1 A! Wave_Dado1 [0] $end
$var wire 1 B! Wave_Saida_AluSrc [31] $end
$var wire 1 C! Wave_Saida_AluSrc [30] $end
$var wire 1 D! Wave_Saida_AluSrc [29] $end
$var wire 1 E! Wave_Saida_AluSrc [28] $end
$var wire 1 F! Wave_Saida_AluSrc [27] $end
$var wire 1 G! Wave_Saida_AluSrc [26] $end
$var wire 1 H! Wave_Saida_AluSrc [25] $end
$var wire 1 I! Wave_Saida_AluSrc [24] $end
$var wire 1 J! Wave_Saida_AluSrc [23] $end
$var wire 1 K! Wave_Saida_AluSrc [22] $end
$var wire 1 L! Wave_Saida_AluSrc [21] $end
$var wire 1 M! Wave_Saida_AluSrc [20] $end
$var wire 1 N! Wave_Saida_AluSrc [19] $end
$var wire 1 O! Wave_Saida_AluSrc [18] $end
$var wire 1 P! Wave_Saida_AluSrc [17] $end
$var wire 1 Q! Wave_Saida_AluSrc [16] $end
$var wire 1 R! Wave_Saida_AluSrc [15] $end
$var wire 1 S! Wave_Saida_AluSrc [14] $end
$var wire 1 T! Wave_Saida_AluSrc [13] $end
$var wire 1 U! Wave_Saida_AluSrc [12] $end
$var wire 1 V! Wave_Saida_AluSrc [11] $end
$var wire 1 W! Wave_Saida_AluSrc [10] $end
$var wire 1 X! Wave_Saida_AluSrc [9] $end
$var wire 1 Y! Wave_Saida_AluSrc [8] $end
$var wire 1 Z! Wave_Saida_AluSrc [7] $end
$var wire 1 [! Wave_Saida_AluSrc [6] $end
$var wire 1 \! Wave_Saida_AluSrc [5] $end
$var wire 1 ]! Wave_Saida_AluSrc [4] $end
$var wire 1 ^! Wave_Saida_AluSrc [3] $end
$var wire 1 _! Wave_Saida_AluSrc [2] $end
$var wire 1 `! Wave_Saida_AluSrc [1] $end
$var wire 1 a! Wave_Saida_AluSrc [0] $end
$var wire 1 b! Wave_Saida_RegDST [31] $end
$var wire 1 c! Wave_Saida_RegDST [30] $end
$var wire 1 d! Wave_Saida_RegDST [29] $end
$var wire 1 e! Wave_Saida_RegDST [28] $end
$var wire 1 f! Wave_Saida_RegDST [27] $end
$var wire 1 g! Wave_Saida_RegDST [26] $end
$var wire 1 h! Wave_Saida_RegDST [25] $end
$var wire 1 i! Wave_Saida_RegDST [24] $end
$var wire 1 j! Wave_Saida_RegDST [23] $end
$var wire 1 k! Wave_Saida_RegDST [22] $end
$var wire 1 l! Wave_Saida_RegDST [21] $end
$var wire 1 m! Wave_Saida_RegDST [20] $end
$var wire 1 n! Wave_Saida_RegDST [19] $end
$var wire 1 o! Wave_Saida_RegDST [18] $end
$var wire 1 p! Wave_Saida_RegDST [17] $end
$var wire 1 q! Wave_Saida_RegDST [16] $end
$var wire 1 r! Wave_Saida_RegDST [15] $end
$var wire 1 s! Wave_Saida_RegDST [14] $end
$var wire 1 t! Wave_Saida_RegDST [13] $end
$var wire 1 u! Wave_Saida_RegDST [12] $end
$var wire 1 v! Wave_Saida_RegDST [11] $end
$var wire 1 w! Wave_Saida_RegDST [10] $end
$var wire 1 x! Wave_Saida_RegDST [9] $end
$var wire 1 y! Wave_Saida_RegDST [8] $end
$var wire 1 z! Wave_Saida_RegDST [7] $end
$var wire 1 {! Wave_Saida_RegDST [6] $end
$var wire 1 |! Wave_Saida_RegDST [5] $end
$var wire 1 }! Wave_Saida_RegDST [4] $end
$var wire 1 ~! Wave_Saida_RegDST [3] $end
$var wire 1 !" Wave_Saida_RegDST [2] $end
$var wire 1 "" Wave_Saida_RegDST [1] $end
$var wire 1 #" Wave_Saida_RegDST [0] $end
$var wire 1 $" Wave_Saida_MemToReg [31] $end
$var wire 1 %" Wave_Saida_MemToReg [30] $end
$var wire 1 &" Wave_Saida_MemToReg [29] $end
$var wire 1 '" Wave_Saida_MemToReg [28] $end
$var wire 1 (" Wave_Saida_MemToReg [27] $end
$var wire 1 )" Wave_Saida_MemToReg [26] $end
$var wire 1 *" Wave_Saida_MemToReg [25] $end
$var wire 1 +" Wave_Saida_MemToReg [24] $end
$var wire 1 ," Wave_Saida_MemToReg [23] $end
$var wire 1 -" Wave_Saida_MemToReg [22] $end
$var wire 1 ." Wave_Saida_MemToReg [21] $end
$var wire 1 /" Wave_Saida_MemToReg [20] $end
$var wire 1 0" Wave_Saida_MemToReg [19] $end
$var wire 1 1" Wave_Saida_MemToReg [18] $end
$var wire 1 2" Wave_Saida_MemToReg [17] $end
$var wire 1 3" Wave_Saida_MemToReg [16] $end
$var wire 1 4" Wave_Saida_MemToReg [15] $end
$var wire 1 5" Wave_Saida_MemToReg [14] $end
$var wire 1 6" Wave_Saida_MemToReg [13] $end
$var wire 1 7" Wave_Saida_MemToReg [12] $end
$var wire 1 8" Wave_Saida_MemToReg [11] $end
$var wire 1 9" Wave_Saida_MemToReg [10] $end
$var wire 1 :" Wave_Saida_MemToReg [9] $end
$var wire 1 ;" Wave_Saida_MemToReg [8] $end
$var wire 1 <" Wave_Saida_MemToReg [7] $end
$var wire 1 =" Wave_Saida_MemToReg [6] $end
$var wire 1 >" Wave_Saida_MemToReg [5] $end
$var wire 1 ?" Wave_Saida_MemToReg [4] $end
$var wire 1 @" Wave_Saida_MemToReg [3] $end
$var wire 1 A" Wave_Saida_MemToReg [2] $end
$var wire 1 B" Wave_Saida_MemToReg [1] $end
$var wire 1 C" Wave_Saida_MemToReg [0] $end
$var wire 1 D" Wave_Unit_Control_ALU [3] $end
$var wire 1 E" Wave_Unit_Control_ALU [2] $end
$var wire 1 F" Wave_Unit_Control_ALU [1] $end
$var wire 1 G" Wave_Unit_Control_ALU [0] $end
$var wire 1 H" auxRS [4] $end
$var wire 1 I" auxRS [3] $end
$var wire 1 J" auxRS [2] $end
$var wire 1 K" auxRS [1] $end
$var wire 1 L" auxRS [0] $end
$var wire 1 M" auxRT [4] $end
$var wire 1 N" auxRT [3] $end
$var wire 1 O" auxRT [2] $end
$var wire 1 P" auxRT [1] $end
$var wire 1 Q" auxRT [0] $end
$upscope $end
$enddefinitions $end
#0
$dumpvars
bx "
0!
0"!
0a!
0`!
0_!
0^!
0]!
0\!
0[!
0Z!
0Y!
0X!
0W!
0V!
0U!
0T!
0S!
0R!
0Q!
0P!
0O!
0N!
0M!
0L!
0K!
0J!
0I!
0H!
0G!
0F!
0E!
0D!
0C!
0B!
0C"
0B"
0A"
0@"
0?"
0>"
0="
0<"
0;"
0:"
09"
08"
07"
06"
05"
04"
03"
02"
01"
00"
0/"
0."
0-"
0,"
0+"
0*"
0)"
0("
0'"
0&"
0%"
0$"
0#"
0""
0!"
0~!
0}!
0|!
0{!
0z!
0y!
0x!
0w!
0v!
0u!
0t!
0s!
0r!
0q!
0p!
0o!
0n!
0m!
0l!
0k!
0j!
0i!
0h!
0g!
0f!
0e!
0d!
0c!
0b!
0G"
1F"
0E"
0D"
0L"
0K"
0J"
0I"
0H"
0Q"
0P"
0O"
0N"
0M"
1c
0j
0i
0h
0g
0f
0e
1d
0q
0p
0o
0n
0m
0l
1k
0x
0w
0v
0u
0t
0s
1r
0!!
0~
0}
0|
0{
0z
1y
1B
1A
0@
0?
0>
0=
0<
0;
0:
09
08
07
06
05
04
03
02
01
00
0/
0.
0-
0,
0+
0*
0)
0(
0'
0&
1%
0$
0#
0b
0a
0`
0_
0^
0]
0\
0[
0Z
0Y
0X
0W
0V
0U
0T
0S
0R
0Q
0P
0O
0N
0M
0L
0K
0J
0I
0H
0G
0F
0E
0D
0C
0A!
0@!
0?!
0>!
0=!
0<!
0;!
0:!
09!
08!
07!
06!
05!
04!
03!
02!
01!
00!
0/!
0.!
0-!
0,!
0+!
0*!
0)!
0(!
0'!
0&!
0%!
0$!
0#!
$end
#15000
1!
1A!
1K"
1,
0%
1?
0B
1D"
0F"
1G"
1C"
1b
1A"
1`
12"
1Q
11"
1P
1/"
1N
1."
1M
1-"
1L
1%"
1D
1$"
1C
1,"
1K
10"
1O
1@"
1_
0D"
1F"
0G"
1B"
1a
1?"
1^
1>"
1]
1="
1\
1<"
1[
1;"
1Z
1:"
1Y
18"
1W
17"
1V
16"
1U
15"
1T
14"
1S
1+"
1J
1*"
1I
1)"
1H
1'"
1F
1&"
1E
1("
1G
13"
1R
19"
1X
0c
0&"
0E
0C"
0b
0A"
0`
02"
0Q
01"
0P
0/"
0N
0."
0M
0-"
0L
0%"
0D
0$"
0C
0,"
0K
00"
0O
0@"
0_
1C"
1b
0B"
0a
0?"
0^
0>"
0]
0="
0\
0<"
0[
0;"
0Z
0:"
0Y
08"
0W
07"
0V
06"
0U
05"
0T
04"
0S
0+"
0J
0*"
0I
0)"
0H
0'"
0F
0("
0G
03"
0R
09"
0X
#30000
0!
1e
1f
1g
1h
1i
1j
1l
1m
1n
1o
1p
1q
1s
1t
1u
1v
1w
1x
1z
1{
1|
1}
1~
1!!
#45000
1!
1&
1%
0?
0A
#60000
0!
0h
0i
0l
0m
0n
0o
0p
0q
0s
0t
0u
0v
0w
0x
0z
0{
0|
0}
0~
0!!
#75000
1!
0A!
0K"
0,
0&
1@
0C"
0b
1c
#90000
0!
#105000
1!
1@!
1J"
1+
1&
0@
1B"
1a
0c
#120000
0!
0f
0g
1h
0j
0d
#135000
1!
0@!
0J"
0+
0&
1@
1B
0B"
0a
1c
